{
  "project_info": {
    "project_number": "87471015226",
    "firebase_url": "https://heart-de93d.firebaseio.com",
    "project_id": "heart-de93d",
    "storage_bucket": "heart-de93d.appspot.com"
  },
  "client": [
    {
      "client_info": {
        "mobilesdk_app_id": "1:87471015226:android:2213d7bb265e15d1f7fc03",
        "android_client_info": {
          "package_name": "com.io.heart"
        }
      },
      "oauth_client": [
        {
          "client_id": "87471015226-0pkpb7kiie2948frjoqstc0l4kpq5fp5.apps.googleusercontent.com",
          "client_type": 3
        }
      ],
      "api_key": [
        {
          "current_key": "AIzaSyDsGFIlQxe5zq6uVyhCP2pU0lSkIF2-nIk"
        }
      ],
      "services": {
        "appinvite_service": {
          "other_platform_oauth_client": [
            {
              "client_id": "87471015226-0pkpb7kiie2948frjoqstc0l4kpq5fp5.apps.googleusercontent.com",
              "client_type": 3
            },
            {
              "client_id": "87471015226-82rdmvcrd890ba7nh79b6jesem021j4k.apps.googleusercontent.com",
              "client_type": 2,
              "ios_info": {
                "bundle_id": "com.example.heart"
              }
            }
          ]
        }
      }
    }
  ],
  "configuration_version": "1"
}